﻿


EVENT   1
 PAGE   1
  250(bytes(0x04,0x08,0x6f,0x3a,0x0c,0x52,0x50,0x47,0x3a,0x3a,0x53,0x45,0x08,0x3a,0x0a,0x40,0x6e,0x61,0x6d,0x65,0x49,0x22,0x0a,0x43,0x68,0x65,0x73,0x74,0x06,0x3a,0x06,0x45,0x54,0x3a,0x0b,0x40,0x70,0x69,0x74,0x63,0x68,0x69,0x69,0x3a,0x0c,0x40,0x76,0x6f,0x6c,0x75,0x6d,0x65,0x69,0x55))
  205(0,bytes(0x04,0x08,0x6f,0x3a,0x13,0x52,0x50,0x47,0x3a,0x3a,0x4d,0x6f,0x76,0x65,0x52,0x6f,0x75,0x74,0x65,0x09,0x3a,0x0c,0x40,0x72,0x65,0x70,0x65,0x61,0x74,0x46,0x3a,0x0f,0x40,0x73,0x6b,0x69,0x70,0x70,0x61,0x62,0x6c,0x65,0x46,0x3a,0x0a,0x40,0x77,0x61,0x69,0x74,0x54,0x3a,0x0a,0x40,0x6c,0x69,0x73,0x74,0x5b,0x0b,0x6f,0x3a,0x15,0x52,0x50,0x47,0x3a,0x3a,0x4d,0x6f,0x76,0x65,0x43,0x6f,0x6d,0x6d,0x61,0x6e,0x64,0x07,0x3a,0x0a,0x40,0x63,0x6f,0x64,0x65,0x69,0x29,0x3a,0x10,0x40,0x70,0x61,0x72,0x61,0x6d,0x65,0x74,0x65,0x72,0x73,0x5b,0x00,0x6f,0x3b,0x0a,0x07,0x3b,0x0b,0x69,0x16,0x3b,0x0c,0x5b,0x00,0x6f,0x3b,0x0a,0x07,0x3b,0x0b,0x69,0x14,0x3b,0x0c,0x5b,0x06,0x69,0x08,0x6f,0x3b,0x0a,0x07,0x3b,0x0b,0x69,0x17,0x3b,0x0c,0x5b,0x00,0x6f,0x3b,0x0a,0x07,0x3b,0x0b,0x69,0x14,0x3b,0x0c,0x5b,0x06,0x69,0x08,0x6f,0x3b,0x0a,0x07,0x3b,0x0b,0x69,0x00,0x3b,0x0c,0x5b,0x00))
  ChangeSelfSwitch("A",0)
  ChangeInventory_Item(36,0,0,1)
  0()
 PAGE   2
  // condition: self-switch A is ON
  0()



EVENT   2
 PAGE   1
  250(bytes(0x04,0x08,0x6f,0x3a,0x0c,0x52,0x50,0x47,0x3a,0x3a,0x53,0x45,0x08,0x3a,0x0a,0x40,0x6e,0x61,0x6d,0x65,0x49,0x22,0x0a,0x43,0x68,0x65,0x73,0x74,0x06,0x3a,0x06,0x45,0x54,0x3a,0x0b,0x40,0x70,0x69,0x74,0x63,0x68,0x69,0x69,0x3a,0x0c,0x40,0x76,0x6f,0x6c,0x75,0x6d,0x65,0x69,0x55))
  205(0,bytes(0x04,0x08,0x6f,0x3a,0x13,0x52,0x50,0x47,0x3a,0x3a,0x4d,0x6f,0x76,0x65,0x52,0x6f,0x75,0x74,0x65,0x09,0x3a,0x0c,0x40,0x72,0x65,0x70,0x65,0x61,0x74,0x46,0x3a,0x0f,0x40,0x73,0x6b,0x69,0x70,0x70,0x61,0x62,0x6c,0x65,0x46,0x3a,0x0a,0x40,0x77,0x61,0x69,0x74,0x54,0x3a,0x0a,0x40,0x6c,0x69,0x73,0x74,0x5b,0x0b,0x6f,0x3a,0x15,0x52,0x50,0x47,0x3a,0x3a,0x4d,0x6f,0x76,0x65,0x43,0x6f,0x6d,0x6d,0x61,0x6e,0x64,0x07,0x3a,0x0a,0x40,0x63,0x6f,0x64,0x65,0x69,0x29,0x3a,0x10,0x40,0x70,0x61,0x72,0x61,0x6d,0x65,0x74,0x65,0x72,0x73,0x5b,0x00,0x6f,0x3b,0x0a,0x07,0x3b,0x0b,0x69,0x16,0x3b,0x0c,0x5b,0x00,0x6f,0x3b,0x0a,0x07,0x3b,0x0b,0x69,0x14,0x3b,0x0c,0x5b,0x06,0x69,0x08,0x6f,0x3b,0x0a,0x07,0x3b,0x0b,0x69,0x17,0x3b,0x0c,0x5b,0x00,0x6f,0x3b,0x0a,0x07,0x3b,0x0b,0x69,0x14,0x3b,0x0c,0x5b,0x06,0x69,0x08,0x6f,0x3b,0x0a,0x07,0x3b,0x0b,0x69,0x00,0x3b,0x0c,0x5b,0x00))
  ChangeSelfSwitch("A",0)
  ChangeInventory_Item(178,0,0,1)
  0()
 PAGE   2
  // condition: self-switch A is ON
  0()



EVENT   3
 PAGE   1
  ShowMessageFace("",0,0,2,1)
  ShowMessage("\\n<Guard>The area ahead is off limits.")
  0()
 PAGE   2
  // condition: variable 1022 >= 4
  0()



EVENT   4
 PAGE   1
  0()
 PAGE   2
  // condition: variable 1022 >= 4
  If(1,1022,0,4,0)
   ShowMessageFace("",0,0,2,1)
   ShowMessage("\\n<Guard>Please, go in. I pray that you complete your mission safely.")
   0()
  EndIf()
  If(1,1022,0,5,0)
   ShowMessageFace("",0,0,2,2)
   ShowMessage("\\n<Guard>Are you going to reorganize your party? Please, go in when you're ready.")
   0()
  EndIf()
  If(1,1022,0,6,1)
   ShowMessageFace("",0,0,2,3)
   ShowMessage("\\n<Guard>We have been told to let you pass. Please, go in.")
   0()
  EndIf()
  0()


EVENT   5
 PAGE   1
  ChangeSwitch(100,100,1)
  281(1)
  250(bytes(0x04,0x08,0x6f,0x3a,0x0c,0x52,0x50,0x47,0x3a,0x3a,0x53,0x45,0x08,0x3a,0x0a,0x40,0x6e,0x61,0x6d,0x65,0x49,0x22,0x09,0x4d,0x6f,0x76,0x65,0x06,0x3a,0x06,0x45,0x54,0x3a,0x0b,0x40,0x70,0x69,0x74,0x63,0x68,0x69,0x69,0x3a,0x0c,0x40,0x76,0x6f,0x6c,0x75,0x6d,0x65,0x69,0x55))
  TeleportPlayer(0,220,12,9,0,0)
  0()



EVENT   6
 PAGE   1
  ChangeSwitch(100,100,1)
  281(1)
  250(bytes(0x04,0x08,0x6f,0x3a,0x0c,0x52,0x50,0x47,0x3a,0x3a,0x53,0x45,0x08,0x3a,0x0a,0x40,0x6e,0x61,0x6d,0x65,0x49,0x22,0x09,0x4d,0x6f,0x76,0x65,0x06,0x3a,0x06,0x45,0x54,0x3a,0x0b,0x40,0x70,0x69,0x74,0x63,0x68,0x69,0x69,0x3a,0x0c,0x40,0x76,0x6f,0x6c,0x75,0x6d,0x65,0x69,0x55))
  TeleportPlayer(0,220,13,9,0,0)
  0()



EVENT   7
 PAGE   1
  If(1,1022,0,4,0)
   ShowMessageFace("",0,0,2,1)
   ShowMessage("We can't leave the King of San Ilia behind.")
   205(-1,bytes(0x04,0x08,0x6f,0x3a,0x13,0x52,0x50,0x47,0x3a,0x3a,0x4d,0x6f,0x76,0x65,0x52,0x6f,0x75,0x74,0x65,0x09,0x3a,0x0c,0x40,0x72,0x65,0x70,0x65,0x61,0x74,0x46,0x3a,0x0f,0x40,0x73,0x6b,0x69,0x70,0x70,0x61,0x62,0x6c,0x65,0x46,0x3a,0x0a,0x40,0x77,0x61,0x69,0x74,0x54,0x3a,0x0a,0x40,0x6c,0x69,0x73,0x74,0x5b,0x07,0x6f,0x3a,0x15,0x52,0x50,0x47,0x3a,0x3a,0x4d,0x6f,0x76,0x65,0x43,0x6f,0x6d,0x6d,0x61,0x6e,0x64,0x07,0x3a,0x0a,0x40,0x63,0x6f,0x64,0x65,0x69,0x06,0x3a,0x10,0x40,0x70,0x61,0x72,0x61,0x6d,0x65,0x74,0x65,0x72,0x73,0x5b,0x00,0x6f,0x3b,0x0a,0x07,0x3b,0x0b,0x69,0x00,0x3b,0x0c,0x5b,0x00))
   EndEventProcessing()
   0()
  EndIf()
  ChangeSwitch(271,271,0)
  281(0)
  250(bytes(0x04,0x08,0x6f,0x3a,0x0c,0x52,0x50,0x47,0x3a,0x3a,0x53,0x45,0x08,0x3a,0x0a,0x40,0x6e,0x61,0x6d,0x65,0x49,0x22,0x09,0x4d,0x6f,0x76,0x65,0x06,0x3a,0x06,0x45,0x54,0x3a,0x0b,0x40,0x70,0x69,0x74,0x63,0x68,0x69,0x69,0x3a,0x0c,0x40,0x76,0x6f,0x6c,0x75,0x6d,0x65,0x69,0x55))
  TeleportPlayer(0,110,29,56,8,0)
  0()



EVENT   8
 PAGE   1
  ChangeSelfSwitch("A",0)
  ShowMessageFace("",0,0,2,1)
  ShowMessage("\\n<Priest>Before you enter the Ancient Temple's Ruins, allow me to explain some things about them.")
  ShowMessageFace("",0,0,2,2)
  ShowMessage("\\n<Priest>It all began before Luddite Village was constructed, before the anti-makina faction split from the church.")
  ShowMessageFace("",0,0,2,3)
  ShowMessage("\\n<Priest>Some locals discovered the ancient ruins by chance while in the caves. Hearing of this, we rushed here and were astonished by what we saw inside.")
  ShowMessageFace("",0,0,2,4)
  ShowMessage("\\n<Priest>Since then, we have issued a gag order on this matter. Officially, these are the [Ancient Temple's Ruins], and are considered a holy place of Ilias.")
  If(0,6,0)
   ShowMessageFace("sonia_fc2",2,0,2,5)
   ShowMessage("\\n<Sonya>So... unofficially, they aren't a temple?")
   0()
  Else()
   ShowMessageFace("ruka_fc1",0,0,2,6)
   ShowMessage("\\n<Luka>Then... the truth is that this isn't actually a temple?")
   0()
  EndIf()
  ShowMessageFace("",0,0,2,7)
  ShowMessage("\\n<Priest>......")
  ShowMessageFace("",0,0,2,8)
  ShowMessage("\\n<Priest>Let's proceed.")
  0()
 PAGE   2
  // condition: self-switch A is ON
  0()



EVENT   9
 PAGE   1
  ChangeSelfSwitch("A",0)
  ShowMessageFace("",0,0,2,1)
  ShowMessage("\\n<Priest>...Allow me to continue. As I said, the general public was told that the newly discovered ruins were those of an ancient temple to Ilias.")
  ShowMessageFace("",0,0,2,2)
  ShowMessage("\\n<Priest>After that, a schism formed, and the anti-makina faction built a village nearby. As they believe these were the grounds of an ancient temple, they wanted the construction to symbolize their regression to ancient fundamentals.")
  ShowMessageFace("",0,0,2,3)
  ShowMessage("\\n<Priest>They likely did not know what these ruins actually are. Otherwise, they would never have built their village on this land.")
  If(0,6,0)
   ShowMessageFace("sonia_fc2",2,0,2,4)
   ShowMessage("\\n<Sonya>Then what on earth are these ruins, actually?")
   0()
  Else()
   ShowMessageFace("ruka_fc1",0,0,2,5)
   ShowMessage("\\n<Luka>Then, what are the ruins?")
   0()
  EndIf()
  ShowMessageFace("",0,0,2,6)
  ShowMessage("\\n<Priest>...You should see the rest for yourself. The real ruins will tell you more than my words ever could.")
  0()
 PAGE   2
  // condition: self-switch A is ON
  0()



EVENT   10
 PAGE   1
  // condition: variable 1022 >= 4
  If(4,72,0)
   ShowMessageFace("phoenix_fc1",1,0,2,1)
   ShowMessage("\\n<Mini>It's the Pooope!")
   0()
  EndIf()
  ShowMessageFace("",0,0,2,2)
  ShowMessage("\\n<Priest>Your Holiness, I have brought them.")
  PictureDisplay(5,"80_saniria_st01",0,0,0,0,100,100,0,0)
  PictureMove(5,null,0,0,0,0,100,100,255,0,30,true)
  ShowMessageFace("saniria_fc1",0,0,2,3)
  ShowMessage("\\n<King of San Ilia>Mm, well done. You can return to your church.")
  ShowMessageFace("",0,0,2,4)
  ShowMessage("\\n<Priest>Yes, sir... Your Holiness, please be careful. Everyone, please take care of His Holiness.")
  ShowMessageFace("",0,0,2,5)
  ShowMessage("The priest returned to the village.")
  ShowMessageFace("saniria_fc1",0,0,2,6)
  ShowMessage("\\n<King of San Ilia>Well then, I shall accompany you from here on. I'll be in your care.")
  PictureClear(5)
  205(0,bytes(0x04,0x08,0x6f,0x3a,0x13,0x52,0x50,0x47,0x3a,0x3a,0x4d,0x6f,0x76,0x65,0x52,0x6f,0x75,0x74,0x65,0x09,0x3a,0x0c,0x40,0x72,0x65,0x70,0x65,0x61,0x74,0x46,0x3a,0x0f,0x40,0x73,0x6b,0x69,0x70,0x70,0x61,0x62,0x6c,0x65,0x46,0x3a,0x0a,0x40,0x77,0x61,0x69,0x74,0x54,0x3a,0x0a,0x40,0x6c,0x69,0x73,0x74,0x5b,0x08,0x6f,0x3a,0x15,0x52,0x50,0x47,0x3a,0x3a,0x4d,0x6f,0x76,0x65,0x43,0x6f,0x6d,0x6d,0x61,0x6e,0x64,0x07,0x3a,0x0a,0x40,0x63,0x6f,0x64,0x65,0x69,0x2a,0x3a,0x10,0x40,0x70,0x61,0x72,0x61,0x6d,0x65,0x74,0x65,0x72,0x73,0x5b,0x00,0x6f,0x3b,0x0a,0x07,0x3b,0x0b,0x69,0x0f,0x3b,0x0c,0x5b,0x00,0x6f,0x3b,0x0a,0x07,0x3b,0x0b,0x69,0x00,0x3b,0x0c,0x5b,0x00))
  ChangeVariable(1022,1022,0,0,5)
  ShowMessageFace("saniria_fc1",0,0,2,7)
  ShowMessage("\\n<King of San Ilia>You might already know this, but I can't fight at all. That's why I'll leave it to you to escort me to the deepest part of the ruins.")
  If(0,6,0)
   ShowMessageFace("sonia_fc1",0,0,2,8)
   ShowMessage("\\n<Sonya>Yes, leave it to us, Your Holiness! I shall smash everyone who harms His Holiness with my club!")
   ShowMessageFace("saniria_fc1",0,0,2,9)
   ShowMessage("\\n<King of San Ilia>In that case... shouldn't the first person you strike be Lazarus, your foster parent?")
   ShowMessageFace("sonia_fc3",2,0,2,10)
   ShowMessage("\\n<Sonya>Eh?!")
   ShowMessageFace("saniria_fc1",0,0,2,11)
   ShowMessage("\\n<King of San Ilia>My apologies, I was just making a little joke.")
   ShowMessageFace("sonia_fc3",2,0,2,12)
   ShowMessage("\\n<Sonya>Your Holiness shouldn't make dark jokes! That was bad for my heart!")
   ShowMessageFace("saniria_fc1",0,0,2,13)
   ShowMessage("\\n<King of San Ilia>Well, I was blown up by Lazarus's bomb, so I do still have something of a grudge. I'm not a saint, after all.")
   ShowMessageFace("sonia_fc3",2,0,2,14)
   ShowMessage("\\n<Sonya>Yes you are! Your Holiness, the Pope, is the holiest saint in the entire world!")
   ShowMessageFace("saniria_fc1",0,0,2,15)
   ShowMessage("\\n<King of San Ilia>Your reactions are all so interesting.")
   ShowMessageFace("sonia_fc4",0,0,2,16)
   ShowMessage("\\n<Sonya>To have His Holiness start a comedy routine with me... I wonder if I'm going to hell...")
   ShowMessageFace("saniria_fc1",0,0,2,17)
   ShowMessage("\\n<King of San Ilia>No, no, I was just teasing you a little. Now, let's get going.")
   0()
  Else()
   ShowMessageFace("ruka_fc1",0,0,2,18)
   ShowMessage("\\n<Luka>Leave it to us!")
   ShowMessageFace("saniria_fc1",0,0,2,19)
   ShowMessage("\\n<King of San Ilia>I'm expecting a lot from you. Now, let's get going.")
   0()
  EndIf()
  0()
 PAGE   2
  // condition: variable 1022 >= 5
  0()


