// EVENT 0049
Name "Skill: Play 91-100"

ChangeVariable(11,11,0,2,1,5)
If(1,100,0,91,0)
 If(1,11,0,1,0)
  ShowMessageFace("candle_fc1",1,0,2,1)
  ShowMessage("\\n<Chandra>Just add the dye. Mix, mix... color, color...")
  ShowMessageFace("",0,0,2,2)
  ShowMessage("Chandra is making candles.")
  EndEventProcessing()
  0()
 EndIf()
 If(1,11,0,2,0)
  ShowMessageFace("candle_fc1",1,0,2,3)
  ShowMessage("\\n<Chandra>Sneaky, sneaky... ufufuu...")
  355("interrupt_skill(3295)")
  EndEventProcessing()
  0()
 EndIf()
 If(1,11,0,3,0)
  ShowMessageFace("candle_fc1",2,0,2,4)
  ShowMessage("\\n<Chandra>Hot, hot... Seems like my flames have gotten stronger.")
  313(0,91,0,60)
  ShowMessageFace("",0,0,2,5)
  ShowMessage("Chandra's body seems to have gotten hotter.")
  EndEventProcessing()
  0()
 EndIf()
 If(1,11,0,4,0)
  ShowMessageFace("candle_fc1",1,0,2,6)
  ShowMessage("\\n<Chandra>It will be the debut of a 'soon to die' idol.")
  ShowMessageFace("",0,0,2,7)
  ShowMessage("Chandra is practicing her signature.")
  EndEventProcessing()
  0()
 EndIf()
 If(1,11,0,5,0)
  ShowMessageFace("candle_fc1",0,0,2,8)
  ShowMessage("\\n<Chandra>Starting fires is strictly prohibited, you hear me?")
  ShowMessageFace("",0,0,2,9)
  ShowMessage("Chandra is preaching!")
  ShowMessage("...but nobody is listening.")
  EndEventProcessing()
  0()
 EndIf()
 0()
EndIf()
If(1,100,0,92,0)
 If(1,11,0,1,0)
  ShowMessageFace("eater_fc1",0,0,2,10)
  ShowMessage("\\n<Eater>Is this yummy?")
  ShowMessageFace("",0,0,2,11)
  ShowMessage("Eater is eating her own ivy.")
  EndEventProcessing()
  0()
 EndIf()
 If(1,11,0,2,0)
  ShowMessageFace("eater_fc1",0,0,2,12)
  ShowMessage("\\n<Eater>Yummy! Yummy!")
  ShowMessageFace("",0,0,2,13)
  ShowMessage("Eater is eating some food she stole!")
  EndEventProcessing()
  0()
 EndIf()
 If(1,11,0,3,0)
  ShowMessageFace("eater_fc1",1,0,2,14)
  ShowMessage("\\n<Eater>Good night.")
  313(0,92,0,11)
  ShowMessageFace("",0,0,2,15)
  ShowMessage("Eater has fallen asleep.")
  EndEventProcessing()
  0()
 EndIf()
 If(1,11,0,4,0)
  ShowMessageFace("eater_fc1",3,0,2,16)
  ShowMessage("\\n<Eater>Hee. ♪")
  ShowMessageFace("",0,0,2,17)
  ShowMessage("Eater is smiling!")
  ShowMessage("...but nothing happened.")
  EndEventProcessing()
  0()
 EndIf()
 If(1,11,0,5,0)
  ShowMessageFace("eater_fc1",3,0,2,18)
  ShowMessage("\\n<Eater>Some seeds fell off my body... Let's try planting them.")
  355("interrupt_skill(3299)")
  EndEventProcessing()
  0()
 EndIf()
 0()
EndIf()
If(1,100,0,93,0)
 If(1,11,0,1,0)
  ShowMessageFace("liot_fc1",0,0,2,19)
  ShowMessage("\\n<Riot>This wall seems perfect. Scratch, scratch.")
  ShowMessageFace("",0,0,2,20)
  ShowMessage("Riot is sharpening her nails.")
  EndEventProcessing()
  0()
 EndIf()
 If(1,11,0,2,0)
  ShowMessageFace("liot_fc1",2,0,2,21)
  ShowMessage("\\n<Riot>Here I go, haa! Haaaaa!")
  355("interrupt_skill(3293)")
  EndEventProcessing()
  0()
 EndIf()
 If(1,11,0,3,0)
  ShowMessageFace("liot_fc1",3,0,2,22)
  ShowMessage("\\n<Riot>I wonder if these things are nice to ogle?")
  ShowMessageFace("",0,0,2,23)
  ShowMessage("Riot gives a sidelong glance...")
  ShowMessage("But it looks more like she is just staring!")
  EndEventProcessing()
  0()
 EndIf()
 If(1,11,0,4,0)
  ShowMessageFace("liot_fc1",0,0,2,24)
  ShowMessage("\\n<Riot>Ahhhhh!")
  355("interrupt_skill(2698)")
  EndEventProcessing()
  0()
 EndIf()
 If(1,11,0,5,0)
  ShowMessageFace("liot_fc1",1,0,2,25)
  ShowMessage("\\n<Riot>If you want to fall to my claws, good! Bring it on!")
  ShowMessageFace("",0,0,2,26)
  ShowMessage("Riot is practicing her catchphrase.")
  EndEventProcessing()
  0()
 EndIf()
 0()
EndIf()
If(1,100,0,94,0)
 If(1,11,0,1,0)
  ShowMessageFace("luksl_fc1",0,0,2,27)
  ShowMessage("\\n<Luxuru>All right, this should be good, right?\nHey, someone hop into my seat.")
  ShowMessageFace("",0,0,2,28)
  ShowMessage("Luksl installed a shoulder massage function!")
  ShowMessage("...but nobody is willing to try it.")
  EndEventProcessing()
  0()
 EndIf()
 If(1,11,0,2,0)
  ShowMessageFace("luksl_fc1",2,0,2,29)
  ShowMessage("\\n<Luxuru>Gyaaa! I'm discharging electricity?!")
  355("interrupt_skill(3307)")
  EndEventProcessing()
  0()
 EndIf()
 If(1,11,0,3,0)
  ShowMessageFace("luksl_fc1",2,0,2,30)
  ShowMessage("\\n<Luxuru>I seems I am neither a complete human nor robot...")
  ShowMessageFace("",0,0,2,31)
  ShowMessage("Luksl is complaining to herself.")
  EndEventProcessing()
  0()
 EndIf()
 If(1,11,0,4,0)
  ShowMessageFace("luksl_fc1",0,0,2,32)
  ShowMessage("\\n<Luxuru>I am equipped with an eye beam function.\nHere I go...Heeee!")
  355("interrupt_skill(3306)")
  EndEventProcessing()
  0()
 EndIf()
 If(1,11,0,5,0)
  ShowMessageFace("luksl_fc1",0,0,2,33)
  ShowMessage("\\n<Luxuru>So-me-thi-ng-se-ems-off?\nHey-is-this-so-me-sort-of-pra-nk?")
  ShowMessageFace("",0,0,2,34)
  ShowMessage("Luksl has become strange.")
  EndEventProcessing()
  0()
 EndIf()
 0()
EndIf()
If(1,100,0,95,0)
 If(1,11,0,1,0)
  ShowMessageFace("delh_a_fc1",0,0,2,35)
  ShowMessage("\\n<Lona>Eii! Ha! Haa!")
  ShowMessageFace("",0,0,2,36)
  ShowMessage("Lona is practicing her sword swings!")
  EndEventProcessing()
  0()
 EndIf()
 If(1,11,0,2,0)
  ShowMessageFace("delh_a_fc1",0,0,2,37)
  ShowMessage("\\n<Lona>Eii! Ha! Haa!")
  355("interrupt_skill(3291)")
  EndEventProcessing()
  0()
 EndIf()
 If(1,11,0,3,0)
  ShowMessageFace("delh_a_fc1",0,0,2,38)
  ShowMessage("\\n<Lona>I think I have some built up frustration.")
  313(0,95,0,24)
  ShowMessageFace("",0,0,2,39)
  ShowMessage("Lona is having dirty thoughts.")
  ShowMessage("Lona has become horny!")
  EndEventProcessing()
  0()
 EndIf()
 If(1,11,0,4,0)
  ShowMessageFace("delh_a_fc1",0,0,2,40)
  ShowMessage("\\n<Lona>Watch my beautiful dance!")
  ShowMessageFace("",0,0,2,41)
  ShowMessage("Lona is performing a fun dance!")
  ShowMessage("...but nothing happened.")
  EndEventProcessing()
  0()
 EndIf()
 If(1,11,0,5,0)
  ShowMessageFace("delh_a_fc1",0,0,2,42)
  ShowMessage("\\n<Lona>Let's play hide and seek, you're it!")
  313(0,95,0,220)
  ShowMessageFace("",0,0,2,43)
  ShowMessage("Lona hid somewhere!")
  ShowMessage("...but nobody tries to find her.")
  EndEventProcessing()
  0()
 EndIf()
 0()
EndIf()
If(1,100,0,96,0)
 If(1,11,0,1,0)
  ShowMessageFace("delh_b_fc1",0,0,2,44)
  ShowMessage("\\n<Marion>I need to take care of this child so it will become big and strong.")
  ShowMessageFace("",0,0,2,45)
  ShowMessage("Marion is watering her tentacle.")
  EndEventProcessing()
  0()
 EndIf()
 If(1,11,0,2,0)
  ShowMessageFace("delh_b_fc1",2,0,2,46)
  ShowMessage("\\n<Marion>It wasn't me! My tentacles did it on their own!")
  ShowMessageFace("",0,0,2,47)
  ShowMessage("Marion is eating some food she stole.")
  EndEventProcessing()
  0()
 EndIf()
 If(1,11,0,3,0)
  ShowMessageFace("delh_b_fc1",0,0,2,48)
  ShowMessage("\\n<Marion>This is boring, please stop.")
  ShowMessageFace("",0,0,2,49)
  ShowMessage("Marion tried to stop the fight!")
  ShowMessage("...but nobody listened.")
  EndEventProcessing()
  0()
 EndIf()
 If(1,11,0,4,0)
  ShowMessageFace("delh_b_fc1",2,0,2,50)
  ShowMessage("\\n<Marion>Ordinary elves should just die!")
  ShowMessageFace("",0,0,2,51)
  ShowMessage("Marion put the hair of an elf into a straw doll.")
  ShowMessage("...and proceeded to stake it to a tree!")
  EndEventProcessing()
  0()
 EndIf()
 If(1,11,0,5,0)
  ShowMessageFace("delh_b_fc1",0,0,2,52)
  ShowMessage("\\n<Marion>Dark smile. ♪")
  ShowMessageFace("",0,0,2,53)
  ShowMessage("Marion smiled!")
  ShowMessage("...but nothing happened.")
  EndEventProcessing()
  0()
 EndIf()
 0()
EndIf()
If(1,100,0,97,0)
 If(1,11,0,1,0)
  ShowMessageFace("fairy_fc1",0,0,2,54)
  ShowMessage("\\n<Fell>Yaay, flowey. ♪")
  ShowMessageFace("",0,0,2,55)
  ShowMessage("Fell is picking flowers.")
  EndEventProcessing()
  0()
 EndIf()
 If(1,11,0,2,0)
  ShowMessageFace("fairy_fc1",0,0,2,56)
  ShowMessage("\\n<Fell>Poee...")
  ShowMessageFace("",0,0,2,57)
  ShowMessage("Fell has spaced out.")
  EndEventProcessing()
  0()
 EndIf()
 If(1,11,0,3,0)
  ShowMessageFace("fairy_fc1",0,0,2,58)
  ShowMessage("\\n<Fell>It's hide and seek! ♪")
  313(0,97,0,220)
  ShowMessageFace("",0,0,2,59)
  ShowMessage("Fell hid somewhere!")
  ShowMessage("...but nobody tries to find her.")
  EndEventProcessing()
  0()
 EndIf()
 If(1,11,0,4,0)
  ShowMessageFace("fairy_fc1",0,0,2,60)
  ShowMessage("\\n<Fell>Flower seeds. ♪ Let's plant them. ♪")
  355("interrupt_skill(3299)")
  EndEventProcessing()
  0()
 EndIf()
 If(1,11,0,5,0)
  ShowMessageFace("fairy_fc1",0,0,2,61)
  ShowMessage("\\n<Fell>Yaay! Yaay! ♪")
  ShowMessageFace("",0,0,2,62)
  ShowMessage("Fell is happily dancing and singing.")
  EndEventProcessing()
  0()
 EndIf()
 0()
EndIf()
If(1,100,0,98,0)
 If(1,11,0,1,0)
  ShowMessageFace("minikani_fc1",0,0,2,63)
  ShowMessage("\\n<Amy>Kei! This is the crab fighting style!")
  ShowMessageFace("",0,0,2,64)
  ShowMessage("Amy is snapping boards between her claws!")
  EndEventProcessing()
  0()
 EndIf()
 If(1,11,0,2,0)
  ShowMessageFace("minikani_fc1",0,0,2,65)
  ShowMessage("\\n<Amy>Scuttle, scuttle...")
  ShowMessageFace("",0,0,2,66)
  ShowMessage("Amy is crab walking.")
  EndEventProcessing()
  0()
 EndIf()
 If(1,11,0,3,0)
  ShowMessageFace("minikani_fc1",0,0,2,67)
  ShowMessage("\\n<Amy>You can do it! Everyone, you can do it!")
  ShowMessageFace("",0,0,2,68)
  ShowMessage("Amy is cheering for everyone!")
  ShowMessage("...but nobody heard her.")
  EndEventProcessing()
  0()
 EndIf()
 If(1,11,0,4,0)
  ShowMessageFace("minikani_fc1",0,0,2,69)
  ShowMessage("\\n<Amy>......")
  313(0,98,0,306)
  ShowMessageFace("",0,0,2,70)
  ShowMessage("Amy retreated into her shell!")
  ShowMessage("Amy's defense went up!")
  EndEventProcessing()
  0()
 EndIf()
 If(1,11,0,5,0)
  ShowMessageFace("minikani_fc1",0,0,2,71)
  ShowMessage("\\n<Amy>Bubble, bubble...")
  ShowMessageFace("",0,0,2,72)
  ShowMessage("Amy produced a lot of foam!")
  ShowMessage("...but nothing happened.")
  EndEventProcessing()
  0()
 EndIf()
 0()
EndIf()
If(1,100,0,99,0)
 If(1,11,0,1,0)
  ShowMessageFace("namazu_fc1",0,0,2,73)
  ShowMessage("\\n<Gigi>It is bad for the skin if you do not get out in the sun every now and then.\nBut too much sun is also bad.")
  ShowMessageFace("",0,0,2,74)
  ShowMessage("Gigi is sunbathing.")
  EndEventProcessing()
  0()
 EndIf()
 If(1,11,0,2,0)
  ShowMessageFace("namazu_fc1",2,0,2,75)
  ShowMessage("\\n<Gigi>What is this?!\nMy shock glands are out of control!")
  355("interrupt_skill(3307)")
  EndEventProcessing()
  0()
 EndIf()
 If(1,11,0,3,0)
  ShowMessageFace("namazu_fc1",2,0,2,76)
  ShowMessage("\\n<Gigi>Ahh... Achoo!")
  355("interrupt_skill(3043)")
  EndEventProcessing()
  0()
 EndIf()
 If(1,11,0,4,0)
  ShowMessageFace("namazu_fc1",1,0,2,77)
  ShowMessage("\\n<Gigi>Are you all showing proper respect to your parents?\nListen up, your parents are...")
  ShowMessageFace("",0,0,2,78)
  ShowMessage("Gigi began to preach!")
  ShowMessage("...but nobody was listening.")
  EndEventProcessing()
  0()
 EndIf()
 If(1,11,0,5,0)
  ShowMessageFace("namazu_fc1",1,0,2,79)
  ShowMessage("\\n<Gigi>I seem to be dozing off...\n...I'll just rest my eyes for a bit.")
  313(0,99,0,11)
  ShowMessageFace("",0,0,2,80)
  ShowMessage("Gigi has fallen asleep!")
  EndEventProcessing()
  0()
 EndIf()
 0()
EndIf()
If(1,100,0,100,0)
 If(1,11,0,1,0)
  ShowMessageFace("rahure_fc1",0,0,2,81)
  ShowMessage("\\n<Fleesia>Time for today's smell check.")
  ShowMessageFace("",0,0,2,82)
  ShowMessage("Fleesia is sniffing the opening to her flower.")
  EndEventProcessing()
  0()
 EndIf()
 If(1,11,0,2,0)
  ShowMessageFace("rahure_fc1",2,0,2,83)
  ShowMessage("\\n<Fleesia>Achoo!　Ahh! My pollen!!")
  355("interrupt_skill(2924)")
  EndEventProcessing()
  0()
 EndIf()
 If(1,11,0,3,0)
  ShowMessageFace("rahure_fc1",1,0,2,84)
  ShowMessage("\\n<Fleesia>We'll lose if I don't dance, after all.")
  ShowMessageFace("",0,0,2,85)
  ShowMessage("Fleesia is happily dancing and singing.")
  EndEventProcessing()
  0()
 EndIf()
 If(1,11,0,4,0)
  ShowMessageFace("rahure_fc1",0,0,2,86)
  ShowMessage("\\n<Fleesia>Pitcher plant girls should just die!")
  ShowMessageFace("",0,0,2,87)
  ShowMessage("Fleesia put the calyx of a pitcher plant girl into a straw doll!")
  ShowMessage("...and proceeded to stake it to a tree with a nail!")
  EndEventProcessing()
  0()
 EndIf()
 If(1,11,0,5,0)
  ShowMessageFace("rahure_fc1",2,0,2,88)
  ShowMessage("\\n<Fleesia>Ahh, I accidentally inhaled paralysis pollen...")
  313(0,100,0,12)
  ShowMessageFace("",0,0,2,89)
  ShowMessage("Fleesia has become paralyzed!")
  EndEventProcessing()
  0()
 EndIf()
 0()
EndIf()
0()
